…
``` r
local_performances = performances %>% pull(local) %>% bind_rows() %>% 
  mutate(fnr = 1-tpr, .after = 'fpr') # 'local_performances' will output a wider dataframe of the specific performance characteristics around each provided threshold/cutoff. Note that this is not an exhaustive list. The values are pulled from the curves used to make the graphs, a very high or very low threshold may output odd values such as 0, 1, Inf, or NA. 
print(local_performances)
```

    ## # A tibble: 46 × 13
    ## # Groups:   group [23]
    ##    variable group      threshold_desired cutoff.roc   tpr   fpr   fnr cutoff.prc
    ##    <chr>    <chr>                  <dbl>      <dbl> <dbl> <dbl> <dbl>      <dbl>
    ##  1 race     African A…              0.08       0.08 0.657 0.651 0.343       0.08
    ##  2 race     Asian                   0.08       0.08 0.657 0.650 0.343       0.08
    ##  3 race     Hispanic                0.08       0.08 0.683 0.652 0.317       0.08
    ##  4 race     Native Am…              0.08       0.08 0.677 0.652 0.323       0.08
    ##  5 race     Something…              0.08       0.08 0.685 0.646 0.315       0.08
    ##  6 race     Two or mo…              0.08       0.08 0.635 0.654 0.365       0.08
    ##  7 race     Unknown                 0.08       0.08 0.678 0.647 0.322       0.08
    ##  8 race     White                   0.08       0.08 0.654 0.656 0.346       0.08
    ##  9 race     African A…              0.15       0.15 0.325 0.326 0.675       0.15
    ## 10 race     Asian                   0.15       0.15 0.359 0.332 0.641       0.15
    ## # ℹ 36 more rows
    ## # ℹ 5 more variables: preCIsion <dbl>, recall <dbl>, preCIsion.raw <dbl>,
    ## #   npv <dbl>, alert_rpp <dbl>
…
